^E:\GITLAB-WAREHOUSE\C-ADD-VSCODE\VIDEO\黑马\函数分文件\函数分文件\SWAP.CPP
/c /ZI /JMC /nologo /W3 /WX- /diagnostics:classic /sdl /Od /Oy- /D _UNICODE /D UNICODE /Gm- /EHsc /RTC1 /MDd /GS /fp:precise /permissive- /Zc:wchar_t /Zc:forScope /Zc:inline /Fo"DEBUG\\" /Fd"DEBUG\VC141.PDB" /Gd /TP /analyze- /FC E:\GITLAB-WAREHOUSE\C-ADD-VSCODE\VIDEO\黑马\函数分文件\函数分文件\SWAP.CPP
^E:\GITLAB-WAREHOUSE\C-ADD-VSCODE\VIDEO\黑马\函数分文件\函数分文件\ADD.CPP
/c /ZI /JMC /nologo /W3 /WX- /diagnostics:classic /sdl /Od /Oy- /D _UNICODE /D UNICODE /Gm- /EHsc /RTC1 /MDd /GS /fp:precise /permissive- /Zc:wchar_t /Zc:forScope /Zc:inline /Fo"DEBUG\\" /Fd"DEBUG\VC141.PDB" /Gd /TP /analyze- /FC E:\GITLAB-WAREHOUSE\C-ADD-VSCODE\VIDEO\黑马\函数分文件\函数分文件\ADD.CPP
^E:\GITLAB-WAREHOUSE\C-ADD-VSCODE\VIDEO\黑马\函数分文件\函数分文件\MAIN.CPP
/c /ZI /JMC /nologo /W3 /WX- /diagnostics:classic /sdl /Od /Oy- /D _UNICODE /D UNICODE /Gm- /EHsc /RTC1 /MDd /GS /fp:precise /permissive- /Zc:wchar_t /Zc:forScope /Zc:inline /Fo"DEBUG\\" /Fd"DEBUG\VC141.PDB" /Gd /TP /analyze- /FC E:\GITLAB-WAREHOUSE\C-ADD-VSCODE\VIDEO\黑马\函数分文件\函数分文件\MAIN.CPP
